<?xml version="1.0" encoding="UTF-8" standalone="no"?>
<!-- Created with Inkscape (http://www.inkscape.org/) -->

<svg
   xmlns:dc="http://purl.org/dc/elements/1.1/"
   xmlns:cc="http://creativecommons.org/ns#"
   xmlns:rdf="http://www.w3.org/1999/02/22-rdf-syntax-ns#"
   xmlns:svg="http://www.w3.org/2000/svg"
   xmlns="http://www.w3.org/2000/svg"
   xmlns:sodipodi="http://sodipodi.sourceforge.net/DTD/sodipodi-0.dtd"
   xmlns:inkscape="http://www.inkscape.org/namespaces/inkscape"
   version="1.1"
   id="svg2"
   xml:space="preserve"
   width="105.04944"
   height="105.04944"
   viewBox="0 0 105.04944 105.04944"
   sodipodi:docname="profile-pic.svg"
   inkscape:version="0.92.0 r"><metadata
     id="metadata8"><rdf:RDF><cc:Work
         rdf:about=""><dc:format>image/svg+xml</dc:format><dc:type
           rdf:resource="http://purl.org/dc/dcmitype/StillImage" /><dc:title></dc:title></cc:Work></rdf:RDF></metadata><defs
     id="defs6"><clipPath
       clipPathUnits="userSpaceOnUse"
       id="clipPath20"><path
         d="M 54,541 H 787.004 V 76.297 H 54 Z"
         id="path18"
         inkscape:connector-curvature="0" /></clipPath><clipPath
       clipPathUnits="userSpaceOnUse"
       id="clipPath28"><path
         d="m 264.941,449.461 h 483.57 v -42.785 h -483.57 z"
         id="path26"
         inkscape:connector-curvature="0" /></clipPath><clipPath
       clipPathUnits="userSpaceOnUse"
       id="clipPath40"><path
         d="M 54,541 H 787.004 V 76.297 H 54 Z"
         id="path38"
         inkscape:connector-curvature="0" /></clipPath><clipPath
       clipPathUnits="userSpaceOnUse"
       id="clipPath46"><path
         d="M 88.824,411.648 H 668.91 V 368.863 H 88.824 Z"
         id="path44"
         inkscape:connector-curvature="0" /></clipPath><clipPath
       clipPathUnits="userSpaceOnUse"
       id="clipPath58"><path
         d="M 54,541 H 787.004 V 76.297 H 54 Z"
         id="path56"
         inkscape:connector-curvature="0" /></clipPath><clipPath
       clipPathUnits="userSpaceOnUse"
       id="clipPath64"><path
         d="M 88.824,374.836 H 191.308 V 332.051 H 88.824 Z"
         id="path62"
         inkscape:connector-curvature="0" /></clipPath><clipPath
       clipPathUnits="userSpaceOnUse"
       id="clipPath76"><path
         d="M 54,541 H 787.004 V 76.297 H 54 Z"
         id="path74"
         inkscape:connector-curvature="0" /></clipPath><clipPath
       clipPathUnits="userSpaceOnUse"
       id="clipPath82"><path
         d="m 264.941,302.199 h 402.977 v -45.77 H 264.941 Z"
         id="path80"
         inkscape:connector-curvature="0" /></clipPath><clipPath
       clipPathUnits="userSpaceOnUse"
       id="clipPath118"><path
         d="M 54,541 H 787.004 V 76.297 H 54 Z"
         id="path116"
         inkscape:connector-curvature="0" /></clipPath><clipPath
       clipPathUnits="userSpaceOnUse"
       id="clipPath124"><path
         d="m 93.438,223.121 h 150.07 v -0.996 H 93.438 Z"
         id="path122"
         inkscape:connector-curvature="0" /></clipPath><clipPath
       clipPathUnits="userSpaceOnUse"
       id="clipPath134"><path
         d="M 54,541 H 787.004 V 76.297 H 54 Z"
         id="path132"
         inkscape:connector-curvature="0" /></clipPath><clipPath
       clipPathUnits="userSpaceOnUse"
       id="clipPath140"><path
         d="M 88.824,261.406 H 248.023 V 218.621 H 88.824 Z"
         id="path138"
         inkscape:connector-curvature="0" /></clipPath><clipPath
       clipPathUnits="userSpaceOnUse"
       id="clipPath152"><path
         d="M 54,541 H 787.004 V 76.297 H 54 Z"
         id="path150"
         inkscape:connector-curvature="0" /></clipPath><clipPath
       clipPathUnits="userSpaceOnUse"
       id="clipPath158"><path
         d="m 239.07,261.406 h 86.566 V 218.621 H 239.07 Z"
         id="path156"
         inkscape:connector-curvature="0" /></clipPath><clipPath
       clipPathUnits="userSpaceOnUse"
       id="clipPath170"><path
         d="M 54,541 H 787.004 V 76.297 H 54 Z"
         id="path168"
         inkscape:connector-curvature="0" /></clipPath><clipPath
       clipPathUnits="userSpaceOnUse"
       id="clipPath176"><path
         d="m 321.121,223.121 h 147.484 v -0.996 H 321.121 Z"
         id="path174"
         inkscape:connector-curvature="0" /></clipPath><clipPath
       clipPathUnits="userSpaceOnUse"
       id="clipPath186"><path
         d="M 54,541 H 787.004 V 76.297 H 54 Z"
         id="path184"
         inkscape:connector-curvature="0" /></clipPath><clipPath
       clipPathUnits="userSpaceOnUse"
       id="clipPath192"><path
         d="M 316.68,261.406 H 472.895 V 218.621 H 316.68 Z"
         id="path190"
         inkscape:connector-curvature="0" /></clipPath><clipPath
       clipPathUnits="userSpaceOnUse"
       id="clipPath204"><path
         d="M 54,541 H 787.004 V 76.297 H 54 Z"
         id="path202"
         inkscape:connector-curvature="0" /></clipPath><clipPath
       clipPathUnits="userSpaceOnUse"
       id="clipPath210"><path
         d="M 463.941,261.406 H 487.82 V 218.621 H 463.941 Z"
         id="path208"
         inkscape:connector-curvature="0" /></clipPath><clipPath
       clipPathUnits="userSpaceOnUse"
       id="clipPath222"><path
         d="M 54,541 H 787.004 V 76.297 H 54 Z"
         id="path220"
         inkscape:connector-curvature="0" /></clipPath><clipPath
       clipPathUnits="userSpaceOnUse"
       id="clipPath228"><path
         d="m 483.406,223.121 h 182.348 v -0.996 H 483.406 Z"
         id="path226"
         inkscape:connector-curvature="0" /></clipPath><clipPath
       clipPathUnits="userSpaceOnUse"
       id="clipPath238"><path
         d="M 54,541 H 787.004 V 76.297 H 54 Z"
         id="path236"
         inkscape:connector-curvature="0" /></clipPath><clipPath
       clipPathUnits="userSpaceOnUse"
       id="clipPath244"><path
         d="m 478.863,264.391 h 191.039 v -45.77 H 478.863 Z"
         id="path242"
         inkscape:connector-curvature="0" /></clipPath><clipPath
       clipPathUnits="userSpaceOnUse"
       id="clipPath264"><path
         d="M 54,541 H 787.004 V 76.297 H 54 Z"
         id="path262"
         inkscape:connector-curvature="0" /></clipPath><clipPath
       clipPathUnits="userSpaceOnUse"
       id="clipPath270"><path
         d="m 660.949,261.406 h 23.879 v -42.785 h -23.879 z"
         id="path268"
         inkscape:connector-curvature="0" /></clipPath><clipPath
       clipPathUnits="userSpaceOnUse"
       id="clipPath282"><path
         d="M 54,541 H 787.004 V 76.297 H 54 Z"
         id="path280"
         inkscape:connector-curvature="0" /></clipPath><clipPath
       clipPathUnits="userSpaceOnUse"
       id="clipPath288"><path
         d="m 93.438,185.473 h 174.301 v -0.996 H 93.438 Z"
         id="path286"
         inkscape:connector-curvature="0" /></clipPath><clipPath
       clipPathUnits="userSpaceOnUse"
       id="clipPath298"><path
         d="M 54,541 H 787.004 V 76.297 H 54 Z"
         id="path296"
         inkscape:connector-curvature="0" /></clipPath><clipPath
       clipPathUnits="userSpaceOnUse"
       id="clipPath304"><path
         d="M 88.824,231.555 H 271.902 V 180.809 H 88.824 Z"
         id="path302"
         inkscape:connector-curvature="0" /></clipPath><clipPath
       clipPathUnits="userSpaceOnUse"
       id="clipPath316"><path
         d="M 54,541 H 787.004 V 76.297 H 54 Z"
         id="path314"
         inkscape:connector-curvature="0" /></clipPath><clipPath
       clipPathUnits="userSpaceOnUse"
       id="clipPath322"><path
         d="m 262.949,223.594 h 23.879 v -42.785 h -23.879 z"
         id="path320"
         inkscape:connector-curvature="0" /></clipPath><clipPath
       clipPathUnits="userSpaceOnUse"
       id="clipPath334"><path
         d="M 54,541 H 787.004 V 76.297 H 54 Z"
         id="path332"
         inkscape:connector-curvature="0" /></clipPath><clipPath
       clipPathUnits="userSpaceOnUse"
       id="clipPath340"><path
         d="m 282.539,185.473 h 174.895 v -0.996 H 282.539 Z"
         id="path338"
         inkscape:connector-curvature="0" /></clipPath><clipPath
       clipPathUnits="userSpaceOnUse"
       id="clipPath350"><path
         d="M 54,541 H 787.004 V 76.297 H 54 Z"
         id="path348"
         inkscape:connector-curvature="0" /></clipPath><clipPath
       clipPathUnits="userSpaceOnUse"
       id="clipPath356"><path
         d="M 277.875,223.594 H 461.949 V 180.809 H 277.875 Z"
         id="path354"
         inkscape:connector-curvature="0" /></clipPath><clipPath
       clipPathUnits="userSpaceOnUse"
       id="clipPath368"><path
         d="M 54,541 H 787.004 V 76.297 H 54 Z"
         id="path366"
         inkscape:connector-curvature="0" /></clipPath><clipPath
       clipPathUnits="userSpaceOnUse"
       id="clipPath374"><path
         d="M 452.996,223.594 H 748.512 V 180.809 H 452.996 Z"
         id="path372"
         inkscape:connector-curvature="0" /></clipPath><clipPath
       clipPathUnits="userSpaceOnUse"
       id="clipPath386"><path
         d="M 54,541 H 787.004 V 76.297 H 54 Z"
         id="path384"
         inkscape:connector-curvature="0" /></clipPath><clipPath
       clipPathUnits="userSpaceOnUse"
       id="clipPath392"><path
         d="M 88.824,188.77 H 290.808 V 143 H 88.824 Z"
         id="path390"
         inkscape:connector-curvature="0" /></clipPath><clipPath
       clipPathUnits="userSpaceOnUse"
       id="clipPath408"><path
         d="M 54,541 H 787.004 V 76.297 H 54 Z"
         id="path406"
         inkscape:connector-curvature="0" /></clipPath><clipPath
       clipPathUnits="userSpaceOnUse"
       id="clipPath414"><path
         d="m 136.586,487.27 h 23.879 v -42.785 h -23.879 z"
         id="path412"
         inkscape:connector-curvature="0" /></clipPath><clipPath
       clipPathUnits="userSpaceOnUse"
       id="clipPath426"><path
         d="m 54.27,540.73 h 733 v -464 h -733 z"
         id="path424"
         inkscape:connector-curvature="0" /></clipPath><clipPath
       clipPathUnits="userSpaceOnUse"
       id="clipPath432"><path
         d="m 87.852,487.27 h 21.89 l 15.574,-42.786 h -21.89 z"
         id="path430"
         inkscape:connector-curvature="0" /></clipPath><clipPath
       clipPathUnits="userSpaceOnUse"
       id="clipPath444"><path
         d="m 54.27,540.73 h 733 v -464 h -733 z"
         id="path442"
         inkscape:connector-curvature="0" /></clipPath><clipPath
       clipPathUnits="userSpaceOnUse"
       id="clipPath450"><path
         d="m 120.645,487.27 h 21.89 L 126.961,444.484 H 105.07 Z"
         id="path448"
         inkscape:connector-curvature="0" /></clipPath></defs><sodipodi:namedview
     pagecolor="#ffffff"
     bordercolor="#666666"
     borderopacity="1"
     objecttolerance="10"
     gridtolerance="10"
     guidetolerance="10"
     inkscape:pageopacity="0"
     inkscape:pageshadow="2"
     inkscape:window-width="1600"
     inkscape:window-height="848"
     id="namedview4"
     showgrid="false"
     fit-margin-top="0"
     fit-margin-left="0"
     fit-margin-right="0"
     fit-margin-bottom="0"
     inkscape:zoom="1.6827953"
     inkscape:cx="144.65616"
     inkscape:cy="19.213939"
     inkscape:window-x="0"
     inkscape:window-y="28"
     inkscape:window-maximized="1"
     inkscape:current-layer="g10" /><g
     id="g10"
     inkscape:groupmode="layer"
     inkscape:label="test"
     transform="matrix(1.3333333,0,0,-1.3333333,-116.93979,680.88821)"><g
       id="g12" /><rect
       style="opacity:1;fill:#000000;fill-opacity:1;stroke:none;stroke-width:7.84346437;stroke-linecap:round;stroke-linejoin:round;stroke-miterlimit:4;stroke-dasharray:none;stroke-opacity:1;paint-order:normal"
       id="rect4958"
       width="78.787079"
       height="78.787079"
       x="87.704842"
       y="-510.66617"
       transform="scale(1,-1)"
       rx="0"
       ry="0"
       inkscape:export-xdpi="913.85999"
       inkscape:export-ydpi="913.85999" /><g
       id="g4984"
       inkscape:export-xdpi="913.85999"
       inkscape:export-ydpi="913.85999"><g
         style="fill:#ffffff"
         id="g4966"><g
           id="text418"
           style="font-style:normal;font-variant:normal;font-weight:bold;font-stretch:normal;font-size:25.09887505px;font-family:nanook;-inkscape-font-specification:'nanook Bold';writing-mode:lr-tb;fill:#ffffff;fill-opacity:1;fill-rule:nonzero;stroke:none"
           transform="matrix(1,0,0,-1,-1.3594292e-6,0)"
           aria-label="P"><path
             inkscape:connector-curvature="0"
             id="path4974"
             style="font-style:normal;font-variant:normal;font-weight:bold;font-stretch:normal;font-family:nanook;-inkscape-font-specification:'nanook Bold';fill:#ffffff"
             d="m 159.64766,-476.5225 c 0,-3.28796 -2.40949,-6.52571 -7.88104,-6.52571 h -8.63402 v 1.63143 l 1.88242,1.40553 v 17.01704 l -1.88242,1.40554 v 1.63143 h 6.57591 v -1.63143 l -1.88242,-1.40554 v -7.00258 h 3.94053 c 5.47155,0 7.88104,-3.23776 7.88104,-6.52571 z m -11.82157,-3.51384 h 4.11622 c 3.58914,0 4.89428,1.98281 4.89428,3.51384 0,1.53103 -1.30514,3.48874 -4.89428,3.48874 h -4.11622 z" /></g><g
           id="text436"
           style="font-style:normal;font-variant:normal;font-weight:bold;font-stretch:normal;font-size:25.09887505px;font-family:nanook;-inkscape-font-specification:'nanook Bold';writing-mode:lr-tb;fill:#ffffff;fill-opacity:1;fill-rule:nonzero;stroke:none;stroke-width:0.93969262"
           transform="matrix(1,0,0.36397022,-1,-1.6722491e-6,0)"
           aria-label="P"><path
             inkscape:connector-curvature="0"
             id="path4971"
             style="font-style:normal;font-variant:normal;font-weight:bold;font-stretch:normal;font-family:nanook;-inkscape-font-specification:'nanook Bold';fill:#ffffff;stroke-width:0.93969262"
             d="m 286.71184,-476.06233 c 0,-3.28795 -2.40949,-6.52571 -7.88104,-6.52571 h -8.63402 v 1.63143 l 1.88242,1.40554 v 17.01704 l -1.88242,1.40553 v 1.63143 h 6.57591 v -1.63143 l -1.88242,-1.40553 v -7.00259 h 3.94053 c 5.47155,0 7.88104,-3.23776 7.88104,-6.52571 z m -11.82157,-3.51384 h 4.11622 c 3.58914,0 4.89428,1.98281 4.89428,3.51384 0,1.53103 -1.30514,3.48875 -4.89428,3.48875 h -4.11622 z" /></g><g
           id="text454"
           style="font-style:normal;font-variant:normal;font-weight:bold;font-stretch:normal;font-size:25.09887505px;font-family:nanook;-inkscape-font-specification:'nanook Bold';writing-mode:lr-tb;fill:#ffffff;fill-opacity:1;fill-rule:nonzero;stroke:none;stroke-width:0.93969262"
           transform="matrix(1,0,-0.36397022,-1,-0.24679388,0)"
           aria-label="P"><path
             inkscape:connector-curvature="0"
             id="path4968"
             style="font-style:normal;font-variant:normal;font-weight:bold;font-stretch:normal;font-family:nanook;-inkscape-font-specification:'nanook Bold';fill:#ffffff;stroke-width:0.93969262"
             d="m -35.200907,-476.06233 c 0,-3.28795 -2.409492,-6.52571 -7.881047,-6.52571 h -8.634013 v 1.63143 l 1.882416,1.40554 v 17.01704 l -1.882416,1.40553 v 1.63143 h 6.575905 v -1.63143 l -1.882415,-1.40553 v -7.00259 h 3.940523 c 5.471555,0 7.881047,-3.23776 7.881047,-6.52571 z m -11.82157,-3.51384 h 4.116215 c 3.589139,0 4.894281,1.98281 4.894281,3.51384 0,1.53103 -1.305142,3.48875 -4.894281,3.48875 h -4.116215 z" /></g></g></g></g></svg>